<svg width="16" height="17" viewBox="0 0 16 17" fill="none" xmlns="http://www.w3.org/2000/svg">
<path d="M15 6.76795C16.3333 7.53775 16.3333 9.46225 15 10.2321L3.75 16.7272C2.41667 17.497 0.749999 16.5348 0.749999 14.9952L0.749999 2.00481C0.749999 0.465211 2.41667 -0.497042 3.75 0.272759L15 6.76795Z" fill="white"/>
</svg>
