<svg width="609" height="662" viewBox="0 0 609 662" fill="none" xmlns="http://www.w3.org/2000/svg">
<rect x="90" width="519" height="662" fill="#6490C6" fill-opacity="0.5"/>
<g clip-path="url(#clip0)">
<path d="M73.6621 453.581C73.6621 477.826 59.2302 486.293 41.429 486.293C41.0146 486.293 40.6023 486.288 40.1924 486.277C39.368 486.259 38.5503 486.223 37.7438 486.165C21.6765 485.031 9.19373 476.128 9.19373 453.581C9.19373 430.248 39.0431 400.805 41.2946 398.619L41.2991 398.617C41.3842 398.532 41.429 398.489 41.429 398.489C41.429 398.489 73.6621 429.333 73.6621 453.581Z" fill="#3F3D56"/>
<path d="M40.2529 482.583L52.0434 466.131L40.2237 484.389L40.1924 486.277C39.368 486.259 38.5503 486.223 37.7438 486.165L39.014 461.909L39.005 461.721L39.0274 461.685L39.1462 459.394L27.2974 441.089L39.182 457.675L39.2111 458.161L40.1722 439.834L30.0283 420.92L40.2954 436.614L41.2946 398.619L41.2991 398.489V398.617L41.1333 428.579L51.2302 416.7L41.0907 431.159L40.8241 447.569L50.2534 431.821L40.7838 449.985L40.636 459.107L54.324 437.187L40.5845 462.291L40.2529 482.583Z" fill="#F2F2F2"/>
<g opacity="0.7">
<path opacity="0.7" d="M447.524 283.639V277.8H418.292V304.806C418.292 306.316 418.893 307.764 419.962 308.832C421.031 309.899 422.481 310.499 423.993 310.499H441.824C443.336 310.499 444.786 309.899 445.855 308.832C446.924 307.764 447.524 306.316 447.524 304.806V298.821C449.54 298.821 451.473 298.021 452.899 296.597C454.324 295.174 455.125 293.243 455.125 291.23C455.125 289.217 454.324 287.286 452.899 285.862C451.473 284.439 449.54 283.639 447.524 283.639V283.639ZM447.524 295.901V286.559C448.765 286.559 449.954 287.051 450.832 287.927C451.709 288.803 452.202 289.991 452.202 291.23C452.202 292.469 451.709 293.657 450.832 294.533C449.954 295.409 448.765 295.901 447.524 295.901V295.901Z" fill="url(#paint0_linear)"/>
</g>
<path d="M446.584 284.553C445.211 284.553 443.87 284.959 442.728 285.721C441.587 286.483 440.698 287.565 440.173 288.831C439.647 290.098 439.51 291.491 439.778 292.836C440.045 294.18 440.706 295.415 441.677 296.385C442.647 297.354 443.884 298.014 445.23 298.281C446.576 298.549 447.971 298.412 449.239 297.887C450.507 297.362 451.591 296.474 452.354 295.334C453.116 294.194 453.523 292.854 453.523 291.484C453.523 289.646 452.792 287.883 451.491 286.583C450.189 285.283 448.424 284.553 446.584 284.553V284.553ZM446.584 295.749C445.739 295.749 444.913 295.499 444.211 295.03C443.509 294.561 442.962 293.895 442.638 293.116C442.315 292.337 442.231 291.479 442.395 290.652C442.56 289.824 442.967 289.064 443.564 288.468C444.161 287.871 444.922 287.465 445.751 287.301C446.579 287.136 447.438 287.22 448.218 287.543C448.998 287.866 449.665 288.413 450.134 289.114C450.604 289.816 450.854 290.64 450.854 291.484C450.854 292.615 450.404 293.7 449.603 294.5C448.803 295.299 447.716 295.749 446.584 295.749Z" fill="#022E64"/>
<path opacity="0.1" d="M446.584 284.553C445.211 284.553 443.87 284.959 442.728 285.721C441.587 286.483 440.698 287.565 440.173 288.831C439.647 290.098 439.51 291.491 439.778 292.836C440.045 294.18 440.706 295.415 441.677 296.385C442.647 297.354 443.884 298.014 445.23 298.281C446.576 298.549 447.971 298.412 449.239 297.887C450.507 297.362 451.591 296.474 452.354 295.334C453.116 294.194 453.523 292.854 453.523 291.484C453.523 289.646 452.792 287.883 451.491 286.583C450.189 285.283 448.424 284.553 446.584 284.553V284.553ZM446.584 295.749C445.739 295.749 444.913 295.499 444.211 295.03C443.509 294.561 442.962 293.895 442.638 293.116C442.315 292.337 442.231 291.479 442.395 290.652C442.56 289.824 442.967 289.064 443.564 288.468C444.161 287.871 444.922 287.465 445.751 287.301C446.579 287.136 447.438 287.22 448.218 287.543C448.998 287.866 449.665 288.413 450.134 289.114C450.604 289.816 450.854 290.64 450.854 291.484C450.854 292.615 450.404 293.7 449.603 294.5C448.803 295.299 447.716 295.749 446.584 295.749Z" fill="black"/>
<path d="M419.894 279.222H446.584V303.852C446.584 305.238 446.033 306.567 445.051 307.547C444.07 308.527 442.739 309.077 441.352 309.077H425.126C423.738 309.077 422.407 308.527 421.426 307.547C420.445 306.567 419.894 305.238 419.894 303.852V279.222Z" fill="#022E64"/>
<path opacity="0.1" d="M441.78 279.222V303.879C441.78 305.258 441.231 306.58 440.255 307.555C439.279 308.53 437.955 309.077 436.575 309.077H439.244C440.624 309.077 441.948 308.53 442.924 307.555C443.9 306.58 444.449 305.258 444.449 303.879V279.222H441.78Z" fill="black"/>
<path d="M425.161 259.348C424.932 259.355 424.708 259.412 424.505 259.516C424.301 259.619 424.123 259.766 423.982 259.946C423.632 260.579 424.266 261.294 424.845 261.73C425.915 262.534 427.042 263.325 427.769 264.448C428.496 265.571 428.725 267.139 427.93 268.215C426.892 269.62 424.416 269.923 424.177 271.653C424.023 272.763 424.984 273.711 425.958 274.268C428.362 275.643 431.462 276.01 433.203 278.163C433.923 276.683 435.535 275.828 437.141 275.463C438.747 275.098 440.416 275.125 442.044 274.877C442.31 274.872 442.571 274.805 442.806 274.68C443.041 274.556 443.244 274.378 443.397 274.16C443.852 273.238 442.555 272.131 443.003 271.205C443.343 270.5 444.345 270.555 445.076 270.272C446.266 269.813 446.757 268.282 446.419 267.053C446.081 265.824 445.127 264.863 444.123 264.076C441.419 261.953 438.167 260.705 434.877 259.807C433.347 259.389 431.551 258.734 429.962 258.671C428.428 258.61 426.679 259.088 425.161 259.348Z" fill="#EEEEEE"/>
<path d="M237.83 315.373L182.023 489.018" stroke="#E0E0E0" stroke-width="8" stroke-miterlimit="10"/>
<g opacity="0.7">
<path opacity="0.7" d="M281.07 508.575C274.205 508.972 268.09 514.716 268.09 514.716L265.132 507.389L264.891 507.468C266.336 501.152 295.728 370.953 266.305 359.729C243.695 351.104 219.714 340.43 200.925 340.831V310.074H227.267V308.978H248.12C252.118 306.126 246.309 304.165 239.817 302.939C240.082 302.637 240.315 302.308 240.513 301.959L273.913 242.11C273.913 242.11 281.596 229.504 276.657 223.474C271.718 217.445 264.584 238.821 264.584 238.821L237.145 278.284C237.145 278.284 209.451 249.456 191.834 235.119C189.879 233.184 187.673 231.519 185.276 230.169C182.06 227.996 179.625 226.87 178.425 227.311C178.413 227.316 178.403 227.323 178.391 227.328C175.721 226.59 172.964 226.215 170.193 226.215H167.998V221.718C172.915 220.096 177.414 217.41 181.173 213.853C184.932 210.296 187.859 205.954 189.745 201.137C192.841 196.016 194.732 190.259 195.274 184.302C195.817 178.345 194.998 172.342 192.879 166.747C193.206 166.708 193.522 166.599 193.803 166.427C194.797 165.788 194.895 164.39 194.799 163.214C194.439 159.265 193.121 155.463 190.959 152.137C188.797 148.81 185.856 146.06 182.391 144.124C179.611 142.606 176.427 141.559 174.376 139.146C172.615 137.072 171.874 134.172 169.742 132.48C167.21 130.47 163.551 130.815 160.443 131.712C156.985 132.712 153.708 134.256 150.737 136.287C147.375 138.586 144.341 141.541 140.471 142.813C137.721 143.718 134.739 143.7 131.971 144.55C129.848 145.222 127.911 146.381 126.316 147.934C124.721 149.488 123.512 151.393 122.786 153.497C122.082 155.757 121.815 158.13 122.001 160.49C120.318 163.299 118.993 166.308 118.059 169.446C117.852 169.558 117.643 169.667 117.438 169.782L118.04 169.512C115.941 176.588 115.871 184.111 117.839 191.225C119.806 198.339 123.732 204.759 129.17 209.756C133.468 215.343 139.348 219.511 146.047 221.718V227.158C141.267 228.188 136.708 230.053 132.578 232.668L132.572 232.66C132.572 232.66 132.222 232.877 131.622 233.28C131.562 233.32 131.502 233.36 131.442 233.401C127.382 236.154 113.774 246.212 114.234 257.08C114.216 257.498 114.218 257.917 114.241 258.338C113.498 261.479 113.122 264.695 113.12 267.922V346.797C113.11 355.512 116.042 363.976 121.444 370.821C109.992 373.384 102.693 377.262 102.693 381.601C102.751 381.964 102.751 382.334 102.693 382.697C102.693 390.416 125.789 396.674 154.279 396.674C157.723 396.674 161.088 396.581 164.344 396.407L196.535 422.434L144.949 505.197C144.949 505.197 127.937 518.351 141.108 522.736C154.279 527.121 181.169 530.41 181.169 530.41C181.169 530.41 185.559 522.736 179.523 519.448C173.486 516.159 165.254 517.803 165.254 517.803L166.352 511.226C166.352 511.226 255.803 434.492 237.145 408.184C233.575 403.15 230.005 397.957 226.405 392.845L240.486 394.126L243.691 514.583L244.092 514.453C243.287 516.819 237.598 534.679 250.208 531.657C263.708 528.421 288.272 517.009 288.272 517.009C288.272 517.009 287.935 508.177 281.07 508.575ZM227.267 301.304L200.925 293.666V271.159L229.555 301.513C228.148 301.372 227.267 301.304 227.267 301.304Z" fill="url(#paint1_linear)"/>
</g>
<path d="M156.802 222.655C178.14 222.655 195.438 205.378 195.438 184.067C195.438 162.755 178.14 145.479 156.802 145.479C135.464 145.479 118.166 162.755 118.166 184.067C118.166 205.378 135.464 222.655 156.802 222.655Z" fill="black"/>
<path d="M200.804 272.497L230.29 303.758C230.91 304.416 231.678 304.919 232.53 305.226C233.382 305.532 234.294 305.634 235.192 305.522C236.091 305.411 236.951 305.09 237.701 304.584C238.452 304.079 239.073 303.404 239.514 302.614L272.174 244.092L263.051 240.877L236.221 279.465C236.221 279.465 185.851 227.03 178.803 229.622C171.756 232.214 200.804 272.497 200.804 272.497Z" fill="#022E64"/>
<path d="M144.46 380.758L100.995 493.305" stroke="#BDBDBD" stroke-width="5" stroke-miterlimit="10"/>
<path d="M165.925 380.758L209.39 493.305" stroke="#BDBDBD" stroke-width="5" stroke-miterlimit="10"/>
<path d="M155.192 395.228C183.05 395.228 205.634 389.109 205.634 381.562C205.634 374.014 183.05 367.895 155.192 367.895C127.334 367.895 104.751 374.014 104.751 381.562C104.751 389.109 127.334 395.228 155.192 395.228Z" fill="#B84733"/>
<path d="M155.192 394.156C183.05 394.156 205.634 388.037 205.634 380.49C205.634 372.942 183.05 366.823 155.192 366.823C127.334 366.823 104.751 372.942 104.751 380.49C104.751 388.037 127.334 394.156 155.192 394.156Z" fill="#F55F44"/>
<path d="M133.968 405.485L181.56 420.132" stroke="#BDBDBD" stroke-width="5" stroke-miterlimit="10"/>
<path d="M176.417 405.485L128.825 420.132" stroke="#BDBDBD" stroke-width="5" stroke-miterlimit="10"/>
<path d="M155.78 228.55H170.754C178.724 228.55 186.367 231.712 192.003 237.341C197.638 242.969 200.804 250.603 200.804 258.563V337.882H114.947V269.332C114.947 258.516 119.249 248.143 126.907 240.495C134.564 232.847 144.95 228.55 155.78 228.55V228.55Z" fill="#022E64"/>
<path d="M114.947 337.882H200.804V384.509H153.046C142.942 384.509 133.251 380.5 126.106 373.364C118.961 366.228 114.947 356.549 114.947 346.457V337.882V337.882Z" fill="#39447A"/>
<path opacity="0.05" d="M116.106 260.728L168.608 310.549H226.562V303.046L176.657 288.576L133.967 235.924C133.967 235.924 114.583 247.886 116.106 260.728Z" fill="black"/>
<path d="M116.106 259.656L168.608 309.477H226.562V301.974L176.657 287.504L133.967 234.853C133.967 234.853 114.583 246.814 116.106 259.656Z" fill="#022E64"/>
<path d="M226.562 301.974C226.562 301.974 254.465 304.118 246.953 309.477H226.562V301.974Z" fill="#FDA57D"/>
<path d="M263.051 240.877C263.051 240.877 270.027 219.975 274.856 225.87C279.686 231.766 272.173 244.092 272.173 244.092L263.051 240.877Z" fill="#FDA57D"/>
<path opacity="0.05" d="M114.947 337.882V340.383L200.804 340.562V337.882H114.947Z" fill="black"/>
<path d="M181.734 387.481L239.488 392.737L242.622 510.522L263.298 503.8C263.298 503.8 294.221 370.351 264.734 359.102C235.247 347.854 203.373 333.042 184.343 345.113C165.313 357.185 181.734 387.481 181.734 387.481Z" fill="#39447A"/>
<path opacity="0.1" d="M185.243 351.281C185.243 351.281 216.903 367.359 221.196 385.581Z" fill="black"/>
<path d="M151.437 383.973L196.511 420.417L146.07 501.345L166.998 507.24C166.998 507.24 254.465 432.208 236.221 406.483C217.976 380.758 199.731 350.745 177.193 350.209C154.656 349.673 151.437 383.973 151.437 383.973Z" fill="#39447A"/>
<path opacity="0.05" d="M222.269 265.53L233.537 284.824L236.221 279.465L222.269 265.53Z" fill="black"/>
<path d="M146.07 501.345C146.07 501.345 129.435 514.207 142.314 518.495C155.193 522.782 181.486 525.998 181.486 525.998C181.486 525.998 185.779 518.495 179.877 515.279C173.974 512.063 165.925 513.671 165.925 513.671L166.998 507.24L146.07 501.345Z" fill="#333333"/>
<path d="M243.101 510.142C243.101 510.142 235.794 530.381 248.995 527.217C262.195 524.054 286.214 512.894 286.214 512.894C286.214 512.894 285.884 504.259 279.172 504.647C272.459 505.036 266.479 510.652 266.479 510.652L263.588 503.488L243.101 510.142Z" fill="#333333"/>
<path d="M157.876 209.792H157.875C151.948 209.792 147.143 214.591 147.143 220.511V231.23C147.143 237.15 151.948 241.949 157.875 241.949H157.876C163.803 241.949 168.608 237.15 168.608 231.23V220.511C168.608 214.591 163.803 209.792 157.876 209.792Z" fill="#FDA57D"/>
<path opacity="0.05" d="M157.875 210.864C155.029 210.864 152.299 211.993 150.287 214.003C148.274 216.014 147.143 218.74 147.143 221.583V225.225C154.114 227.515 161.637 227.515 168.608 225.225V221.583C168.608 218.74 167.477 216.014 165.464 214.003C163.452 211.993 160.722 210.864 157.875 210.864Z" fill="black"/>
<path d="M157.876 225.87C176.843 225.87 192.219 210.514 192.219 191.57C192.219 172.627 176.843 157.27 157.876 157.27C138.908 157.27 123.532 172.627 123.532 191.57C123.532 210.514 138.908 225.87 157.876 225.87Z" fill="#FDA57D"/>
<path opacity="0.05" d="M123.532 190.014C123.532 190.014 132.118 192.223 136.948 182.477C141.777 172.731 145.533 167.415 165.388 173.174C185.243 178.933 189.237 179.636 190.191 174.19C190.843 170.469 183.783 161.43 179.246 156.078C177.033 153.468 173.422 151.91 169.562 151.91H147.143L133.728 158.112L123.532 166.972L121.386 178.933L123.532 190.014Z" fill="black"/>
<path d="M123.532 188.942C123.532 188.942 132.118 191.152 136.948 181.406C141.777 171.66 145.533 166.344 165.388 172.103C185.243 177.862 189.237 178.564 190.191 173.118C190.843 169.397 183.783 160.358 179.246 155.007C177.033 152.396 173.422 150.839 169.562 150.839H147.143L133.728 157.041L123.532 165.901L121.386 177.862L123.532 188.942Z" fill="black"/>
<path d="M127.02 195.858C128.947 195.858 130.508 192.738 130.508 188.89C130.508 185.042 128.947 181.923 127.02 181.923C125.094 181.923 123.532 185.042 123.532 188.89C123.532 192.738 125.094 195.858 127.02 195.858Z" fill="#FDA57D"/>
<path d="M124.528 170.963C123.732 166.476 122.95 161.765 124.399 157.445C125.108 155.387 126.29 153.525 127.85 152.006C129.409 150.487 131.303 149.353 133.38 148.696C136.086 147.865 139.002 147.883 141.691 146.998C145.475 145.754 148.442 142.865 151.729 140.616C154.634 138.631 157.838 137.121 161.22 136.143C164.259 135.266 167.837 134.928 170.313 136.894C172.398 138.548 173.122 141.384 174.844 143.412C176.849 145.772 179.963 146.795 182.682 148.28C186.07 150.173 188.945 152.862 191.059 156.115C193.173 159.367 194.462 163.085 194.814 166.946C194.908 168.097 194.812 169.463 193.84 170.088C193.236 170.395 192.556 170.519 191.883 170.445C178.157 170.249 164.415 170.052 150.746 168.794C146.497 168.403 142.239 167.908 137.974 168.07C131.375 168.327 124.93 170.143 119.169 173.369" fill="black"/>
<path d="M65.0915 476.826H17.5923C7.87633 476.826 0 484.692 0 494.396V494.396C0 504.1 7.87633 511.967 17.5923 511.967H65.0915C74.8075 511.967 82.6838 504.1 82.6838 494.396C82.6838 484.692 74.8075 476.826 65.0915 476.826Z" fill="#022E64"/>
<path d="M309.021 351.37C309.229 351.363 309.427 351.275 309.572 351.125C309.717 350.975 309.798 350.775 309.798 350.566C309.798 350.358 309.717 350.157 309.572 350.007C309.427 349.857 309.229 349.769 309.021 349.762C308.812 349.769 308.614 349.857 308.469 350.007C308.324 350.157 308.243 350.358 308.243 350.566C308.243 350.775 308.324 350.975 308.469 351.125C308.614 351.275 308.812 351.363 309.021 351.37Z" fill="url(#paint2_linear)"/>
<path d="M427.126 315.373L482.934 513.72" stroke="#E0E0E0" stroke-width="8" stroke-miterlimit="10"/>
<path d="M483.16 309.564H181.797V321.293H483.16V309.564Z" fill="#E0E0E0"/>
<path d="M301.955 306.798H259.563C257.637 306.798 256.075 308.357 256.075 310.281V310.281C256.075 312.205 257.637 313.765 259.563 313.765H301.955C303.882 313.765 305.443 312.205 305.443 310.281C305.443 308.357 303.882 306.798 301.955 306.798Z" fill="#535461"/>
<g opacity="0.7">
<path opacity="0.7" d="M393.683 229.119H301.268C292.905 229.119 286.125 235.89 286.125 244.243V298.728C286.125 307.08 292.905 313.852 301.268 313.852H393.683C402.047 313.852 408.826 307.08 408.826 298.728V244.243C408.826 235.89 402.047 229.119 393.683 229.119Z" fill="url(#paint3_linear)"/>
</g>
<path d="M390.147 230.682H302.713C294.76 230.682 288.313 237.121 288.313 245.064V299.47C288.313 307.413 294.76 313.852 302.713 313.852H390.147C398.1 313.852 404.547 307.413 404.547 299.47V245.064C404.547 237.121 398.1 230.682 390.147 230.682Z" fill="#3E3F49"/>
<path d="M391.757 230.682H304.323C296.37 230.682 289.923 237.121 289.923 245.064V299.47C289.923 307.413 296.37 313.852 304.323 313.852H391.757C399.71 313.852 406.157 307.413 406.157 299.47V245.064C406.157 237.121 399.71 230.682 391.757 230.682Z" fill="#535461"/>
<path d="M353.47 275.445C355.544 275.445 357.226 273.765 357.226 271.693C357.226 269.621 355.544 267.942 353.47 267.942C351.395 267.942 349.714 269.621 349.714 271.693C349.714 273.765 351.395 275.445 353.47 275.445Z" fill="#E0E0E0"/>
</g>
<defs>
<linearGradient id="paint0_linear" x1="436.708" y1="310.499" x2="436.708" y2="277.8" gradientUnits="userSpaceOnUse">
<stop stop-color="#808080" stop-opacity="0.25"/>
<stop offset="0.53514" stop-color="#808080" stop-opacity="0.12"/>
<stop offset="1" stop-color="#808080" stop-opacity="0.1"/>
</linearGradient>
<linearGradient id="paint1_linear" x1="95507.6" y1="330598" x2="95507.6" y2="30563.9" gradientUnits="userSpaceOnUse">
<stop stop-color="#808080" stop-opacity="0.25"/>
<stop offset="0.53514" stop-color="#808080" stop-opacity="0.12"/>
<stop offset="1" stop-color="#808080" stop-opacity="0.1"/>
</linearGradient>
<linearGradient id="paint2_linear" x1="1436.71" y1="1132.91" x2="1436.71" y2="1128.08" gradientUnits="userSpaceOnUse">
<stop stop-color="#808080" stop-opacity="0.25"/>
<stop offset="0.53514" stop-color="#808080" stop-opacity="0.12"/>
<stop offset="1" stop-color="#808080" stop-opacity="0.1"/>
</linearGradient>
<linearGradient id="paint3_linear" x1="79739.7" y1="29138.2" x2="79739.7" y2="15741.8" gradientUnits="userSpaceOnUse">
<stop stop-color="#808080" stop-opacity="0.25"/>
<stop offset="0.53514" stop-color="#808080" stop-opacity="0.12"/>
<stop offset="1" stop-color="#808080" stop-opacity="0.1"/>
</linearGradient>
<clipPath id="clip0">
<rect width="485" height="401" fill="white" transform="translate(0 131)"/>
</clipPath>
</defs>
</svg>
